info face="Carter One" size=64 bold=1 italic=0 charset="" unicode=0 stretchH=100 smooth=1 aa=1 padding=0,0,0,0 spacing=0,0
common lineHeight=99 base=71 scaleW=256 scaleH=256 pages=1 packed=0
page id=0 file="carter_one_64_game_title.png"
chars count=12
char id=32   x=0     y=0     width=0     height=0     xoffset=0     yoffset=71    xadvance=18     page=0  chnl=0 
char id=84   x=0     y=0     width=45     height=51     xoffset=3     yoffset=24    xadvance=40     page=0  chnl=0 
char id=78   x=45     y=0     width=41     height=51     xoffset=5     yoffset=24    xadvance=47     page=0  chnl=0 
char id=72   x=86     y=0     width=48     height=50     xoffset=3     yoffset=24    xadvance=51     page=0  chnl=0 
char id=82   x=134     y=0     width=47     height=50     xoffset=4     yoffset=24    xadvance=50     page=0  chnl=0 
char id=76   x=181     y=0     width=35     height=50     xoffset=3     yoffset=24    xadvance=36     page=0  chnl=0 
char id=80   x=0     y=51     width=44     height=50     xoffset=5     yoffset=24    xadvance=46     page=0  chnl=0 
char id=71   x=44     y=51     width=47     height=50     xoffset=5     yoffset=24    xadvance=50     page=0  chnl=0 
char id=73   x=91     y=51     width=20     height=50     xoffset=5     yoffset=24    xadvance=25     page=0  chnl=0 
char id=86   x=111     y=51     width=46     height=50     xoffset=5     yoffset=24    xadvance=45     page=0  chnl=0 
char id=65   x=157     y=51     width=47     height=50     xoffset=2     yoffset=24    xadvance=47     page=0  chnl=0 
char id=83   x=204     y=51     width=32     height=50     xoffset=6     yoffset=24    xadvance=38     page=0  chnl=0 
char id=69   x=0     y=101     width=40     height=49     xoffset=5     yoffset=24    xadvance=41     page=0  chnl=0 
kernings count=-1
